{
    "local_drives": 
        {
            "main_path": "",
            "c_drive" : "C:\\",
            "database_path" : "Databases\\5G_NOTAMS.db"

        },
    "shared_drives": 
        {
            "g_drive": "G:\\",
            "q_drive": "Q:\\"
            
        }
}
