﻿LETTER,TEXT,SCORE,HEADER
M,Movement and Landing Area,10000,RUNWAY & TAXIWAY
I,Instrument and Microwave Landing,20000,NAV
C ,Communications and Radar,30000,NAV
P ,Air Traffic Procedures,40000,NAV
A,Airspace Organization,50000,NAV
R,Airspace Restrictions,60000,NAV
N,Terminal and En-Route Navigation,70000,NAV
L,Lighting,80000,LIGHTING
F,Facilities and Services,90000,AIRPORT
O,Other Information,100000,MISC
S,Air Traffic and VOLMET Services,110000,MISC
X,Other,120000,MISC
T,Hazard,130000,MISC
W,Warnings,140000,MISC
G,Military,150000,MILITARY
