﻿LETTER,TEXT,SCORE
AC,WITHDRAWN FOR MAINTENANCE,1
AD,AVAILABLE FOR DAYLIGHT OPERATIONS,3
AF,FLIGHT CHECKED AND FOUND RELIABLE,99
AG,"OPERATING BUT GROUND CHECKED ONLY, AWAITING FLIGHT CHECK",3
AH,HOURS OF SERVICE ARE,4
AK,RESUMED NORMAL OPERATIONS,99
AL,OPERATIVE SUBJECT TO PREVIOUSLY PUBLISHED LIMITATIONS,99
AM,MILITARY OPERATIONS ONLY,3
AN,AVAILABLE FOR NIGHT OPERATIONS,3
AO,OPERATIONAL,99
AP,"AVAILABLE, PRIOR PERMISSION REQUIRED",2
AQ,COMPLETELY WITHDRAWN,2
AR,"AVAILABLE, ON REQUEST",2
AS,UNSERVICEABLE,1
AU,NOT AVAILABLE,1
AW,COMPLETELY WITHDRAWN,1
AX,PREVIOUSLY PROMULGATED SHUTDOWN HAS BEEN CANCELLED,99
CA,ACTIVATED,5
CC,COMPLETED,99
CD,DEACTIVATED,1
CE,ERECTED,10
CF,FREQUENCY CHANGED TO,7
CG,DOWNGRADED TO,7
CH,CHANGED,1
CI,IDENTIFICATION OR RADIO CALL SIGN CHANGED TO,10
CL,REALIGNED,1
CM,DISPLACED,1
CN,CANCELLED,5
CO,OPERATING,99
CP,OPERATING ON REDUCED POWER,99
CR,TEMPORARILY REPLACED BY,5
CS,INSTALLED,5
CT,"ON TEST, DO NOT USE",1
GA,NOT COINCIDENTAL WITH ILS/PAR,
GB,IN RAISED POSITION,
GC,TAIL HOOK ONLY,
GD,OFFICIAL BUSINESS ONLY,
GE,EXPECT LANDING DELAY,
GF,EXTENSIVE SERVICE DELAY,
GG,UNUSABLE BEYOND,
GH,UNUSABLE,
GI,UNMONITORED,
GJ,IN PROGRESS,
GK,MODERATE,
GL,SEVERE,
GM,NOT ILLUMINATED,
GN,FREQUENCY NOT AVAILABLE,
GO,IS WET,
GV,NOT AUTHORIZED,
HA,BRAKING ACTION IS,2
HB,BRAKING COEFFICIENT IS,2
HC,COVERED BY COMPACTED SNOW TO A DEPTH OF,2
HD,COVERED BY DRY SNOW TO A DEPTH OF,2
HE,COVERED BY WATER TO A DEPTH OF,2
HF,TOTALLY FREE OF SNOW AND ICE,2
HG,GRASS CUTTING IN PROGRESS,99
HH,HAZARD DUE TO,6
HI,COVERED BY ICE,2
HJ,LAUNCH PLANNED,10
HK,MIGRATION IN PROGRESS,99
HL,SNOW CLEARANCE COMPLETED,8
HM,MARKED BY,6
HN,COVERED BY WET SNOW OR SLUSH TO A DEPTH OF,2
HO,OBSCURED BY SNOW,6
HP,SNOW CLEARANCE IN PROGRESS,4
HQ,OPERATIONS CANCELLED,99
HR,STANDING WATER,2
HS,SANDING,2
HT,APPROACH ACCORDING TO SIGNAL AREA ONLY,10
HU,LAUNCH IN PROGRESS,10
HV,WORK COMPLETED,99
HW,WORK IN PROGRESS,8
HX,CONCENTRATION OF BIRDS,99
HY,SNOW BANKS EXIST,2
HZ,COVERED BY FROZEN RUTS AND RIDGES,9
KK,Volcanic Activity,2
LA,OPERATING ON AUXILIARY POWER SUPPLY,99
LB,RESERVED FOR AIRCRAFT BASED THEREIN,10
LC,CLOSED,1
LD,UNSAFE,1
LE,OPERATING WITHOUT AUXILIARY POWER SUPPLY,99
LF,INTERFERENCE FROM,5
LG,OPERATING WITHOUT IDENTIFICATION,99
LH,UNSERVICEABLE FOR AIRCRAFT HEAVIER THAN,1
LI,CLOSED TO IFR OPERATIONS,1
LK,OPERATING AS A FIXED LIGHT,99
LL,USABLE FOR LENGTH OF AND WIDTH OF,1
LN,CLOSED TO ALL NIGHT OPERATIONS,3
LP,PROHIBITED TO,1
LR,AIRCRAFT RESTRICTED TO RUNWAYS AND TAXIWAYS,1
LS,SUBJECT TO INTERRUPTION,1
LT,LIMITED TO,1
LV,CLOSED TO VFR OPERATIONS,10
LW,WILL TAKE PLACE,10
LX,OPERATING BUT CAUTION ADVISED DUE TO,8
LY,EFFECTIVE,10
TT,TRIGGER (NOTAM REF. AN AIP SUP.),10
XX,OTHER,3
